Shift/A_CPU_ALU_MD_SHIFT_1_SFT8/simulation/qsim/SFT8.msim.vcd
$comment
	File created using the following command:
		vcd file SFT8.msim.vcd -direction
$end
$date
	Sat May 25 18:12:35 2019
$end
$version
	ModelSim Version 10.5b
$end
$timescale
	1ps
$end

$scope module SFT8_vlg_vec_tst $end
$var reg 1 ! C0 $end
$var reg 1 " CLK $end
$var reg 8 # D [7:0] $end
$var reg 1 $ M $end
$var reg 2 % S [1:0] $end
$var wire 1 & CN $end
$var wire 1 ' QB [7] $end
$var wire 1 ( QB [6] $end
$var wire 1 ) QB [5] $end
$var wire 1 * QB [4] $end
$var wire 1 + QB [3] $end
$var wire 1 , QB [2] $end
$var wire 1 - QB [1] $end
$var wire 1 . QB [0] $end

$scope module i1 $end
$var wire 1 / gnd $end
$var wire 1 0 vcc $end
$var wire 1 1 unknown $end
$var tri1 1 2 devclrn $end
$var tri1 1 3 devpor $end
$var tri1 1 4 devoe $end
$var wire 1 5 QB[0]~output_o $end
$var wire 1 6 QB[1]~output_o $end
$var wire 1 7 QB[2]~output_o $end
$var wire 1 8 QB[3]~output_o $end
$var wire 1 9 QB[4]~output_o $end
$var wire 1 : QB[5]~output_o $end
$var wire 1 ; QB[6]~output_o $end
$var wire 1 < QB[7]~output_o $end
$var wire 1 = CN~output_o $end
$var wire 1 > CLK~input_o $end
$var wire 1 ? CLK~inputclkctrl_outclk $end
$var wire 1 @ S[1]~input_o $end
$var wire 1 A D[2]~input_o $end
$var wire 1 B D[5]~input_o $end
$var wire 1 C D[7]~input_o $end
$var wire 1 D S[0]~input_o $end
$var wire 1 E C0~input_o $end
$var wire 1 F Mux7~2_combout $end
$var wire 1 G REG[7]~7_combout $end
$var wire 1 H Mux7~3_combout $end
$var wire 1 I M~input_o $end
$var wire 1 J D[6]~input_o $end
$var wire 1 K REG[6]~6_combout $end
$var wire 1 L REG[6]~8_combout $end
$var wire 1 M REG[5]~5_combout $end
$var wire 1 N D[4]~input_o $end
$var wire 1 O REG[4]~4_combout $end
$var wire 1 P D[3]~input_o $end
$var wire 1 Q REG[3]~3_combout $end
$var wire 1 R REG[2]~2_combout $end
$var wire 1 S D[1]~input_o $end
$var wire 1 T REG[1]~1_combout $end
$var wire 1 U D[0]~input_o $end
$var wire 1 V REG[0]~0_combout $end
$var wire 1 W Mux7~0_combout $end
$var wire 1 X Mux7~1_combout $end
$var wire 1 Y CY~1_combout $end
$var wire 1 Z CY~0_combout $end
$var wire 1 [ CY~2_combout $end
$var wire 1 \ CY~q $end
$var wire 1 ] REG [7] $end
$var wire 1 ^ REG [6] $end
$var wire 1 _ REG [5] $end
$var wire 1 ` REG [4] $end
$var wire 1 a REG [3] $end
$var wire 1 b REG [2] $end
$var wire 1 c REG [1] $end
$var wire 1 d REG [0] $end
$upscope $end
$upscope $end
$enddefinitions $end
#0
$dumpvars
1!
0"
b10010100 #
1$
b11 %
0&
0.
0-
0,
0+
0*
0)
0(
0'
0/
10
x1
12
13
14
05
06
07
08
09
0:
0;
0<
0=
0>
0?
1@
1A
0B
1C
1D
1E
1F
1G
0H
1I
0J
0K
1L
0M
1N
1O
0P
0Q
1R
0S
0T
0U
0V
1W
1X
0Y
0Z
0[
0\
0d
0c
0b
0a
0`
0_
0^
0]
$end
#10000
1"
1>
1?
1b
1`
1]
1<
19
17
1,
1*
1'
#15000
0!
0E
0W
0F
0X
#20000
0"
0>
0?
#30000
1"
1>
1?
#40000
b1 %
0"
0@
0>
0?
1Y
1H
1T
0R
1Q
0O
1K
0G
#50000
b10110100 #
b10100100 #
b10100101 #
1"
1U
0N
1B
1>
1?
1c
0b
1a
0`
1^
0]
0<
1;
09
18
07
16
0H
1-
0,
1+
0*
1(
0'
1V
0T
1R
0Q
1M
0K
#60000
1!
0"
1E
0>
0?
1F
1G
#70000
1"
1>
1?
1d
0c
1b
0a
1_
0^
1]
1<
0;
1:
08
17
06
15
1Z
1X
1H
1.
0-
1,
0+
1)
0(
1'
0V
1T
0R
1O
0M
1K
1[
#75000
0!
0E
0F
0G
#80000
0"
0>
0?
#90000
1!
1"
1E
1>
1?
1F
1G
1\
0d
1c
0b
1`
0_
1^
0]
0<
1;
0:
19
07
16
05
1=
0Z
0X
0H
1&
0.
1-
0,
1*
0)
1(
0'
1V
0T
1Q
0O
1M
0K
0[
#100000
b10100111 #
b10110111 #
b10110110 #
0"
0U
1S
1N
0>
0?
#110000
1"
1>
1?
0\
1d
0c
1a
0`
1_
0^
1]
1<
0;
1:
09
18
06
15
0=
1Z
1X
1H
0&
1.
0-
1+
0*
1)
0(
1'
0V
1R
0Q
1O
0M
1K
1[
#120000
0!
0"
0E
0>
0?
0F
0G
#130000
b0 %
1"
0D
1>
1?
0Y
1F
0[
1G
1\
0d
1b
0a
1`
0_
1^
0]
0<
1;
0:
19
08
17
05
1=
0Z
0X
0F
0H
1&
0.
1,
0+
1*
0)
1(
0'
1[
1T
0R
1Q
0O
1M
0K
0G
#140000
0"
0>
0?
#150000
1"
1>
1?
1c
0b
1a
0`
1_
0^
0;
1:
09
18
07
16
1-
0,
1+
0*
1)
0(
1V
0T
1R
0Q
1O
0M
#160000
0"
0>
0?
#165000
1!
1E
#170000
b11110110 #
b11010110 #
b11000110 #
b11000111 #
1"
1U
0N
0B
1J
1>
1?
1d
0c
1b
0a
1`
0_
0:
19
08
17
06
15
1Z
1X
1F
1.
0-
1,
0+
1*
0)
0V
1T
0R
1Q
0O
1G
#180000
0!
0"
0E
0>
0?
#190000
1"
1>
1?
0d
1c
0b
1a
0`
1]
1<
09
18
07
16
05
0Z
0X
0F
1H
0.
1-
0,
1+
0*
1'
1V
0T
1R
0Q
1K
0G
#195000
1!
1E
#200000
b10 %
0"
1@
0>
0?
1W
0H
1T
1G
1X
#210000
1"
1>
1?
1d
1b
0a
1^
1;
08
17
15
1Z
1F
1H
1.
1,
0+
1(
#220000
0"
0>
0?
#230000
1"
1>
1?
#240000
0$
0!
b0 %
0"
0I
0E
0@
0>
0?
0L
0W
0R
1M
#250000
1"
1>
1?
#255000
1!
1E
#260000
b11001111 #
b11001011 #
b11001001 #
b11011001 #
b11011000 #
0"
0U
0S
0A
1P
1N
0>
0?
#270000
1"
1>
1?
#280000
0"
0>
0?
#290000
1"
1>
1?
#300000
0!
0"
0E
0>
0?
#310000
1"
1>
1?
#320000
0"
0>
0?
#330000
b11111000 #
b11101000 #
b11101001 #
1!
1"
1U
0N
1B
1E
1>
1?
#340000
0"
0>
0?
#350000
1"
1>
1?
#360000
0!
0"
0E
0>
0?
#370000
1"
1>
1?
#375000
1!
1E
#380000
0"
0>
0?
#390000
b1101001 #
b101001 #
b100001 #
b1 #
b0 #
1"
0U
0P
0B
0J
0C
1>
1?
#400000
0"
0>
0?
#410000
1"
1>
1?
#420000
0"
0>
0?
#430000
1"
1>
1?
#440000
0"
0>
0?
#450000
1"
1>
1?
#460000
0"
0>
0?
#465000
0!
0E
#470000
1"
1>
1?
#480000
0"
0>
0?
#490000
1"
1>
1?
#495000
1!
1E
#500000
0"
0>
0?
#510000
1"
1>
1?
#520000
0"
0>
0?
#530000
1"
1>
1?
#540000
0"
0>
0?
#550000
1"
1>
1?
#560000
0"
0>
0?
#570000
0!
1"
0E
1>
1?
#580000
0"
0>
0?
#590000
1"
1>
1?
#600000
0"
0>
0?
#610000
1"
1>
1?
#620000
0"
0>
0?
#630000
1!
1"
1E
1>
1?
#640000
0"
0>
0?
#645000
0!
0E
#650000
1"
1>
1?
#660000
1!
0"
1E
0>
0?
#670000
1"
1>
1?
#675000
0!
0E
#680000
0"
0>
0?
#690000
1!
1"
1E
1>
1?
#700000
0"
0>
0?
#705000
0!
0E
#710000
1"
1>
1?
#720000
1!
0"
1E
0>
0?
#730000
1"
1>
1?
#735000
0!
0E
#740000
0"
0>
0?
#750000
1"
1>
1?
#760000
0"
0>
0?
#770000
1"
1>
1?
#780000
1!
0"
1E
0>
0?
#790000
1"
1>
1?
#795000
0!
0E
#800000
0"
0>
0?
#810000
1"
1>
1?
#820000
0"
0>
0?
#830000
1"
1>
1?
#840000
1!
0"
1E
0>
0?
#850000
1"
1>
1?
#860000
0"
0>
0?
#870000
1"
1>
1?
#880000
0"
0>
0?
#885000
0!
0E
#890000
1"
1>
1?
#900000
1!
0"
1E
0>
0?
#910000
1"
1>
1?
#915000
0!
0E
#920000
0"
0>
0?
#930000
1"
1>
1?
#940000
0"
0>
0?
#945000
1!
1E
#950000
1"
1>
1?
#960000
0"
0>
0?
#970000
1"
1>
1?
#980000
0"
0>
0?
#990000
0!
1"
0E
1>
1?
#1000000
0"
0>
0?
#1010000
1"
1>
1?
#1020000
1!
0"
1E
0>
0?
#1030000
1"
1>
1?
#1040000
0"
0>
0?
#1050000
1"
1>
1?
#1060000
0"
0>
0?
#1065000
0!
0E
#1070000
1"
1>
1?
#1080000
0"
0>
0?
#1090000
1"
1>
1?
#1100000
0"
0>
0?
#1110000
1"
1>
1?
#1120000
0"
0>
0?
#1130000
1"
1>
1?
#1140000
1!
0"
1E
0>
0?
#1150000
1"
1>
1?
#1160000
0"
0>
0?
#1170000
0!
1"
0E
1>
1?
#1180000
0"
0>
0?
#1185000
1!
1E
#1190000
1"
1>
1?
#1200000
0"
0>
0?
#1210000
1"
1>
1?
#1215000
0!
0E
#1220000
0"
0>
0?
#1230000
1!
1"
1E
1>
1?
#1240000
0"
0>
0?
#1250000
1"
1>
1?
#1260000
0!
0"
0E
0>
0?
#1270000
1"
1>
1?
#1280000
0"
0>
0?
#1290000
1!
1"
1E
1>
1?
#1300000
0"
0>
0?
#1305000
0!
0E
#1310000
1"
1>
1?
#1320000
1!
0"
1E
0>
0?
#1330000
1"
1>
1?
#1340000
0"
0>
0?
#1350000
1"
1>
1?
#1360000
0"
0>
0?
#1365000
0!
0E
#1370000
1"
1>
1?
#1380000
0"
0>
0?
#1390000
1"
1>
1?
#1400000
0"
0>
0?
#1410000
1!
1"
1E
1>
1?
#1420000
0"
0>
0?
#1430000
1"
1>
1?
#1440000
0"
0>
0?
#1450000
1"
1>
1?
#1455000
0!
0E
#1460000
0"
0>
0?
#1470000
1!
1"
1E
1>
1?
#1480000
0"
0>
0?
#1490000
1"
1>
1?
#1500000
0"
0>
0?
#1510000
1"
1>
1?
#1515000
0!
0E
#1520000
0"
0>
0?
#1530000
1"
1>
1?
#1540000
0"
0>
0?
#1550000
1"
1>
1?
#1560000
1!
0"
1E
0>
0?
#1570000
1"
1>
1?
#1580000
0"
0>
0?
#1590000
1"
1>
1?
#1600000
0"
0>
0?
#1610000
1"
1>
1?
#1620000
0"
0>
0?
#1630000
1"
1>
1?
#1640000
0"
0>
0?
#1650000
1"
1>
1?
#1660000
0"
0>
0?
#1665000
0!
0E
#1670000
1"
1>
1?
#1680000
0"
0>
0?
#1690000
1"
1>
1?
#1700000
0"
0>
0?
#1710000
1!
1"
1E
1>
1?
#1720000
0"
0>
0?
#1725000
0!
0E
#1730000
1"
1>
1?
#1740000
0"
0>
0?
#1750000
1"
1>
1?
#1760000
0"
0>
0?
#1770000
1!
1"
1E
1>
1?
#1780000
0"
0>
0?
#1790000
1"
1>
1?
#1800000
0"
0>
0?
#1810000
1"
1>
1?
#1820000
0"
0>
0?
#1830000
1"
1>
1?
#1840000
0"
0>
0?
#1850000
1"
1>
1?
#1860000
0!
0"
0E
0>
0?
#1870000
1"
1>
1?
#1875000
1!
1E
#1880000
0"
0>
0?
#1890000
1"
1>
1?
#1900000
0"
0>
0?
#1905000
0!
0E
#1910000
1"
1>
1?
#1920000
1!
0"
1E
0>
0?
#1930000
1"
1>
1?
#1935000
0!
0E
#1940000
0"
0>
0?
#1950000
1!
1"
1E
1>
1?
#1960000
0"
0>
0?
#1970000
1"
1>
1?
#1980000
0!
0"
0E
0>
0?
#1990000
1"
1>
1?
#2000000
0"
0>
0?
#2010000
1"
1>
1?
#2020000
0"
0>
0?
#2025000
1!
1E
#2030000
1"
1>
1?
#2040000
0"
0>
0?
#2050000
1"
1>
1?
#2055000
0!
0E
#2060000
0"
0>
0?
#2070000
1"
1>
1?
#2080000
0"
0>
0?
#2085000
1!
1E
#2090000
1"
1>
1?
#2100000
0!
0"
0E
0>
0?
#2110000
1"
1>
1?
#2120000
0"
0>
0?
#2130000
1"
1>
1?
#2140000
0"
0>
0?
#2145000
1!
1E
#2150000
1"
1>
1?
#2160000
0!
0"
0E
0>
0?
#2170000
1"
1>
1?
#2175000
1!
1E
#2180000
0"
0>
0?
#2190000
0!
1"
0E
1>
1?
#2200000
0"
0>
0?
#2210000
1"
1>
1?
#2220000
0"
0>
0?
#2230000
1"
1>
1?
#2235000
1!
1E
#2240000
0"
0>
0?
#2250000
0!
1"
0E
1>
1?
#2260000
0"
0>
0?
#2265000
1!
1E
#2270000
1"
1>
1?
#2280000
0"
0>
0?
#2290000
1"
1>
1?
#2295000
0!
0E
#2300000
0"
0>
0?
#2310000
1!
1"
1E
1>
1?
#2320000
0"
0>
0?
#2330000
1"
1>
1?
#2340000
0!
0"
0E
0>
0?
#2350000
1"
1>
1?
#2355000
1!
1E
#2360000
0"
0>
0?
#2370000
0!
1"
0E
1>
1?
#2380000
0"
0>
0?
#2390000
1"
1>
1?
#2400000
1!
0"
1E
0>
0?
#2410000
1"
1>
1?
#2415000
0!
0E
#2420000
0"
0>
0?
#2430000
1"
1>
1?
#2440000
0"
0>
0?
#2445000
1!
1E
#2450000
1"
1>
1?
#2460000
0!
0"
0E
0>
0?
#2470000
1"
1>
1?
#2480000
0"
0>
0?
#2490000
1"
1>
1?
#2500000
0"
0>
0?
#2505000
1!
1E
#2510000
1"
1>
1?
#2520000
0!
0"
0E
0>
0?
#2530000
1"
1>
1?
#2540000
0"
0>
0?
#2550000
1"
1>
1?
#2560000
0"
0>
0?
#2570000
1"
1>
1?
#2580000
1!
0"
1E
0>
0?
#2590000
1"
1>
1?
#2595000
0!
0E
#2600000
0"
0>
0?
#2610000
1!
1"
1E
1>
1?
#2620000
0"
0>
0?
#2625000
0!
0E
#2630000
1"
1>
1?
#2640000
1!
0"
1E
0>
0?
#2650000
1"
1>
1?
#2660000
0"
0>
0?
#2670000
0!
1"
0E
1>
1?
#2680000
0"
0>
0?
#2690000
1"
1>
1?
#2700000
0"
0>
0?
#2710000
1"
1>
1?
#2715000
1!
1E
#2720000
0"
0>
0?
#2730000
0!
1"
0E
1>
1?
#2740000
0"
0>
0?
#2745000
1!
1E
#2750000
1"
1>
1?
#2760000
0!
0"
0E
0>
0?
#2770000
1"
1>
1?
#2775000
1!
1E
#2780000
0"
0>
0?
#2790000
0!
1"
0E
1>
1?
#2800000
0"
0>
0?
#2805000
1!
1E
#2810000
1"
1>
1?
#2820000
0"
0>
0?
#2830000
1"
1>
1?
#2840000
0"
0>
0?
#2850000
0!
1"
0E
1>
1?
#2860000
0"
0>
0?
#2870000
1"
1>
1?
#2880000
0"
0>
0?
#2890000
1"
1>
1?
#2895000
1!
1E
#2900000
0"
0>
0?
#2910000
0!
1"
0E
1>
1?
#2920000
0"
0>
0?
#2930000
1"
1>
1?
#2940000
0"
0>
0?
#2950000
1"
1>
1?
#2955000
1!
1E
#2960000
0"
0>
0?
#2970000
0!
1"
0E
1>
1?
#2980000
0"
0>
0?
#2990000
1"
1>
1?
#3000000
1!
0"
1E
0>
0?
#3010000
1"
1>
1?
#3020000
0"
0>
0?
#3030000
1"
1>
1?
#3040000
0"
0>
0?
#3045000
0!
0E
#3050000
1"
1>
1?
#3060000
0"
0>
0?
#3070000
1"
1>
1?
#3075000
1!
1E
#3080000
0"
0>
0?
#3090000
0!
1"
0E
1>
1?
#3100000
0"
0>
0?
#3105000
1!
1E
#3110000
1"
1>
1?
#3120000
0!
0"
0E
0>
0?
#3130000
1"
1>
1?
#3135000
1!
1E
#3140000
0"
0>
0?
#3150000
1"
1>
1?
#3160000
0"
0>
0?
#3165000
0!
0E
#3170000
1"
1>
1?
#3180000
0"
0>
0?
#3190000
1"
1>
1?
#3195000
1!
1E
#3200000
0"
0>
0?
#3210000
1"
1>
1?
#3220000
0"
0>
0?
#3230000
1"
1>
1?
#3240000
0!
0"
0E
0>
0?
#3250000
1"
1>
1?
#3260000
0"
0>
0?
#3270000
1"
1>
1?
#3280000
0"
0>
0?
#3290000
1"
1>
1?
#3300000
0"
0>
0?
#3310000
1"
1>
1?
#3320000
0"
0>
0?
#3330000
1!
1"
1E
1>
1?
#3340000
0"
0>
0?
#3350000
1"
1>
1?
#3360000
0"
0>
0?
#3370000
1"
1>
1?
#3380000
0"
0>
0?
#3390000
1"
1>
1?
#3400000
0"
0>
0?
#3410000
1"
1>
1?
#3420000
0"
0>
0?
#3430000
1"
1>
1?
#3435000
0!
0E
#3440000
0"
0>
0?
#3450000
1"
1>
1?
#3460000
0"
0>
0?
#3470000
1"
1>
1?
#3480000
1!
0"
1E
0>
0?
#3490000
1"
1>
1?
#3500000
0"
0>
0?
#3510000
0!
1"
0E
1>
1?
#3520000
0"
0>
0?
#3525000
1!
1E
#3530000
1"
1>
1?
#3540000
0!
0"
0E
0>
0?
#3550000
1"
1>
1?
#3555000
1!
1E
#3560000
0"
0>
0?
#3570000
1"
1>
1?
#3580000
0"
0>
0?
#3585000
0!
0E
#3590000
1"
1>
1?
#3600000
0"
0>
0?
#3610000
1"
1>
1?
#3620000
0"
0>
0?
#3630000
1!
1"
1E
1>
1?
#3640000
0"
0>
0?
#3645000
0!
0E
#3650000
1"
1>
1?
#3660000
1!
0"
1E
0>
0?
#3670000
1"
1>
1?
#3675000
0!
0E
#3680000
0"
0>
0?
#3690000
1!
1"
1E
1>
1?
#3700000
0"
0>
0?
#3710000
1"
1>
1?
#3720000
0!
0"
0E
0>
0?
#3730000
1"
1>
1?
#3740000
0"
0>
0?
#3750000
1"
1>
1?
#3760000
0"
0>
0?
#3770000
1"
1>
1?
#3780000
0"
0>
0?
#3790000
1"
1>
1?
#3800000
0"
0>
0?
#3810000
1!
1"
1E
1>
1?
#3820000
0"
0>
0?
#3830000
1"
1>
1?
#3840000
0"
0>
0?
#3850000
1"
1>
1?
#3860000
0"
0>
0?
#3870000
1"
1>
1?
#3880000
0"
0>
0?
#3890000
1"
1>
1?
#3900000
0!
0"
0E
0>
0?
#3910000
1"
1>
1?
#3920000
0"
0>
0?
#3930000
1!
1"
1E
1>
1?
#3940000
0"
0>
0?
#3945000
0!
0E
#3950000
1"
1>
1?
#3960000
0"
0>
0?
#3970000
1"
1>
1?
#3975000
1!
1E
#3980000
0"
0>
0?
#3990000
1"
1>
1?
#4000000
0"
0>
0?
#4010000
1"
1>
1?
#4020000
0"
0>
0?
#4030000
1"
1>
1?
#4035000
0!
0E
#4040000
0"
0>
0?
#4050000
1"
1>
1?
#4060000
0"
0>
0?
#4070000
1"
1>
1?
#4080000
0"
0>
0?
#4090000
1"
1>
1?
#4100000
0"
0>
0?
#4110000
1"
1>
1?
#4120000
0"
0>
0?
#4130000
1"
1>
1?
#4140000
1!
0"
1E
0>
0?
#4150000
1"
1>
1?
#4155000
0!
0E
#4160000
0"
0>
0?
#4170000
1"
1>
1?
#4180000
0"
0>
0?
#4190000
1"
1>
1?
#4200000
0"
0>
0?
#4210000
1"
1>
1?
#4215000
1!
1E
#4220000
0"
0>
0?
#4230000
1"
1>
1?
#4240000
0"
0>
0?
#4250000
1"
1>
1?
#4260000
0"
0>
0?
#4270000
1"
1>
1?
#4275000
0!
0E
#4280000
0"
0>
0?
#4290000
1!
1"
1E
1>
1?
#4300000
0"
0>
0?
#4305000
0!
0E
#4310000
1"
1>
1?
#4320000
1!
0"
1E
0>
0?
#4330000
1"
1>
1?
#4335000
0!
0E
#4340000
0"
0>
0?
#4350000
1"
1>
1?
#4360000
0"
0>
0?
#4365000
1!
1E
#4370000
1"
1>
1?
#4380000
0!
0"
0E
0>
0?
#4390000
1"
1>
1?
#4395000
1!
1E
#4400000
0"
0>
0?
#4410000
0!
1"
0E
1>
1?
#4420000
0"
0>
0?
#4430000
1"
1>
1?
#4440000
0"
0>
0?
#4450000
1"
1>
1?
#4460000
0"
0>
0?
#4470000
1!
1"
1E
1>
1?
#4480000
0"
0>
0?
#4485000
0!
0E
#4490000
1"
1>
1?
#4500000
1!
0"
1E
0>
0?
#4510000
1"
1>
1?
#4520000
0"
0>
0?
#4530000
1"
1>
1?
#4540000
0"
0>
0?
#4545000
0!
0E
#4550000
1"
1>
1?
#4560000
0"
0>
0?
#4570000
1"
1>
1?
#4580000
0"
0>
0?
#4590000
1"
1>
1?
#4600000
0"
0>
0?
#4605000
1!
1E
#4610000
1"
1>
1?
#4620000
0"
0>
0?
#4630000
1"
1>
1?
#4635000
0!
0E
#4640000
0"
0>
0?
#4650000
1!
1"
1E
1>
1?
#4660000
0"
0>
0?
#4665000
0!
0E
#4670000
1"
1>
1?
#4680000
1!
0"
1E
0>
0?
#4690000
1"
1>
1?
#4695000
0!
0E
#4700000
0"
0>
0?
#4710000
1!
1"
1E
1>
1?
#4720000
0"
0>
0?
#4725000
0!
0E
#4730000
1"
1>
1?
#4740000
0"
0>
0?
#4750000
1"
1>
1?
#4755000
1!
1E
#4760000
0"
0>
0?
#4770000
1"
1>
1?
#4780000
0"
0>
0?
#4785000
0!
0E
#4790000
1"
1>
1?
#4800000
0"
0>
0?
#4810000
1"
1>
1?
#4820000
0"
0>
0?
#4830000
1"
1>
1?
#4840000
0"
0>
0?
#4850000
1"
1>
1?
#4860000
0"
0>
0?
#4870000
1"
1>
1?
#4875000
1!
1E
#4880000
0"
0>
0?
#4890000
1"
1>
1?
#4900000
0"
0>
0?
#4905000
0!
0E
#4910000
1"
1>
1?
#4920000
0"
0>
0?
#4930000
1"
1>
1?
#4940000
0"
0>
0?
#4950000
1"
1>
1?
#4960000
0"
0>
0?
#4970000
1"
1>
1?
#4980000
1!
0"
1E
0>
0?
#4990000
1"
1>
1?
#5000000
0"
0>
0?
#5010000
1"
1>
1?
#5020000
0"
0>
0?
#5030000
1"
1>
1?
#5040000
0"
0>
0?
#5050000
1"
1>
1?
#5060000
0"
0>
0?
#5070000
0!
1"
0E
1>
1?
#5080000
0"
0>
0?
#5090000
1"
1>
1?
#5100000
1!
0"
1E
0>
0?
#5110000
1"
1>
1?
#5115000
0!
0E
#5120000
0"
0>
0?
#5130000
1"
1>
1?
#5140000
0"
0>
0?
#5150000
1"
1>
1?
#5160000
0"
0>
0?
#5170000
1"
1>
1?
#5180000
0"
0>
0?
#5190000
1"
1>
1?
#5200000
0"
0>
0?
#5205000
1!
1E
#5210000
1"
1>
1?
#5220000
0"
0>
0?
#5230000
1"
1>
1?
#5240000
0"
0>
0?
#5250000
0!
1"
0E
1>
1?
#5260000
0"
0>
0?
#5270000
1"
1>
1?
#5280000
1!
0"
1E
0>
0?
#5290000
1"
1>
1?
#5300000
0"
0>
0?
#5310000
0!
1"
0E
1>
1?
#5320000
0"
0>
0?
#5325000
1!
1E
#5330000
1"
1>
1?
#5340000
0"
0>
0?
#5350000
1"
1>
1?
#5355000
0!
0E
#5360000
0"
0>
0?
#5370000
1!
1"
1E
1>
1?
#5380000
0"
0>
0?
#5390000
1"
1>
1?
#5400000
0!
0"
0E
0>
0?
#5410000
1"
1>
1?
#5420000
0"
0>
0?
#5430000
1"
1>
1?
#5440000
0"
0>
0?
#5450000
1"
1>
1?
#5460000
0"
0>
0?
#5470000
1"
1>
1?
#5475000
1!
1E
#5480000
0"
0>
0?
#5490000
0!
1"
0E
1>
1?
#5500000
0"
0>
0?
#5505000
1!
1E
#5510000
1"
1>
1?
#5520000
0!
0"
0E
0>
0?
#5530000
1"
1>
1?
#5535000
1!
1E
#5540000
0"
0>
0?
#5550000
1"
1>
1?
#5560000
0"
0>
0?
#5565000
0!
0E
#5570000
1"
1>
1?
#5580000
1!
0"
1E
0>
0?
#5590000
1"
1>
1?
#5600000
0"
0>
0?
#5610000
0!
1"
0E
1>
1?
#5620000
0"
0>
0?
#5625000
1!
1E
#5630000
1"
1>
1?
#5640000
0!
0"
0E
0>
0?
#5650000
1"
1>
1?
#5655000
1!
1E
#5660000
0"
0>
0?
#5670000
0!
1"
0E
1>
1?
#5680000
0"
0>
0?
#5690000
1"
1>
1?
#5700000
1!
0"
1E
0>
0?
#5710000
1"
1>
1?
#5720000
0"
0>
0?
#5730000
1"
1>
1?
#5740000
0"
0>
0?
#5745000
0!
0E
#5750000
1"
1>
1?
#5760000
0"
0>
0?
#5770000
1"
1>
1?
#5780000
0"
0>
0?
#5790000
1"
1>
1?
#5800000
0"
0>
0?
#5810000
1"
1>
1?
#5820000
1!
0"
1E
0>
0?
#5830000
1"
1>
1?
#5835000
0!
0E
#5840000
0"
0>
0?
#5850000
1"
1>
1?
#5860000
0"
0>
0?
#5865000
1!
1E
#5870000
1"
1>
1?
#5880000
0"
0>
0?
#5890000
1"
1>
1?
#5900000
0"
0>
0?
#5910000
0!
1"
0E
1>
1?
#5920000
0"
0>
0?
#5925000
1!
1E
#5930000
1"
1>
1?
#5940000
0!
0"
0E
0>
0?
#5950000
1"
1>
1?
#5955000
1!
1E
#5960000
0"
0>
0?
#5970000
0!
1"
0E
1>
1?
#5980000
0"
0>
0?
#5990000
1"
1>
1?
#6000000
0"
0>
0?
#6010000
1"
1>
1?
#6015000
1!
1E
#6020000
0"
0>
0?
#6030000
1"
1>
1?
#6040000
0"
0>
0?
#6045000
0!
0E
#6050000
1"
1>
1?
#6060000
1!
0"
1E
0>
0?
#6070000
1"
1>
1?
#6075000
0!
0E
#6080000
0"
0>
0?
#6090000
1"
1>
1?
#6100000
0"
0>
0?
#6110000
1"
1>
1?
#6120000
0"
0>
0?
#6130000
1"
1>
1?
#6140000
0"
0>
0?
#6150000
1!
1"
1E
1>
1?
#6160000
0"
0>
0?
#6170000
1"
1>
1?
#6180000
0!
0"
0E
0>
0?
#6190000
1"
1>
1?
#6195000
1!
1E
#6200000
0"
0>
0?
#6210000
0!
1"
0E
1>
1?
#6220000
0"
0>
0?
#6230000
1"
1>
1?
#6240000
0"
0>
0?
#6250000
1"
1>
1?
#6255000
1!
1E
#6260000
0"
0>
0?
#6270000
0!
1"
0E
1>
1?
#6280000
0"
0>
0?
#6285000
1!
1E
#6290000
1"
1>
1?
#6300000
0"
0>
0?
#6310000
1"
1>
1?
#6315000
0!
0E
#6320000
0"
0>
0?
#6330000
1"
1>
1?
#6340000
0"
0>
0?
#6345000
1!
1E
#6350000
1"
1>
1?
#6360000
0!
0"
0E
0>
0?
#6370000
1"
1>
1?
#6375000
1!
1E
#6380000
0"
0>
0?
#6390000
1"
1>
1?
#6400000
0"
0>
0?
#6410000
1"
1>
1?
#6420000
0!
0"
0E
0>
0?
#6430000
1"
1>
1?
#6440000
0"
0>
0?
#6450000
1!
1"
1E
1>
1?
#6460000
0"
0>
0?
#6470000
1"
1>
1?
#6480000
0!
0"
0E
0>
0?
#6490000
1"
1>
1?
#6495000
1!
1E
#6500000
0"
0>
0?
#6510000
1"
1>
1?
#6520000
0"
0>
0?
#6530000
1"
1>
1?
#6540000
0"
0>
0?
#6550000
1"
1>
1?
#6560000
0"
0>
0?
#6570000
0!
1"
0E
1>
1?
#6580000
0"
0>
0?
#6585000
1!
1E
#6590000
1"
1>
1?
#6600000
0!
0"
0E
0>
0?
#6610000
1"
1>
1?
#6620000
0"
0>
0?
#6630000
1"
1>
1?
#6640000
0"
0>
0?
#6645000
1!
1E
#6650000
1"
1>
1?
#6660000
0"
0>
0?
#6670000
1"
1>
1?
#6675000
0!
0E
#6680000
0"
0>
0?
#6690000
1!
1"
1E
1>
1?
#6700000
0"
0>
0?
#6710000
1"
1>
1?
#6720000
0!
0"
0E
0>
0?
#6730000
1"
1>
1?
#6740000
0"
0>
0?
#6750000
1"
1>
1?
#6760000
0"
0>
0?
#6770000
1"
1>
1?
#6780000
0"
0>
0?
#6790000
1"
1>
1?
#6795000
1!
1E
#6800000
0"
0>
0?
#6810000
1"
1>
1?
#6820000
0"
0>
0?
#6830000
1"
1>
1?
#6840000
0!
0"
0E
0>
0?
#6850000
1"
1>
1?
#6855000
1!
1E
#6860000
0"
0>
0?
#6870000
1"
1>
1?
#6880000
0"
0>
0?
#6885000
0!
0E
#6890000
1"
1>
1?
#6900000
0"
0>
0?
#6910000
1"
1>
1?
#6920000
0"
0>
0?
#6930000
1!
1"
1E
1>
1?
#6940000
0"
0>
0?
#6945000
0!
0E
#6950000
1"
1>
1?
#6960000
0"
0>
0?
#6970000
1"
1>
1?
#6980000
0"
0>
0?
#6990000
1!
1"
1E
1>
1?
#7000000
0"
0>
0?
#7005000
0!
0E
#7010000
1"
1>
1?
#7020000
0"
0>
0?
#7030000
1"
1>
1?
#7035000
1!
1E
#7040000
0"
0>
0?
#7050000
0!
1"
0E
1>
1?
#7060000
0"
0>
0?
#7070000
1"
1>
1?
#7080000
1!
0"
1E
0>
0?
#7090000
1"
1>
1?
#7100000
0"
0>
0?
#7110000
0!
1"
0E
1>
1?
#7120000
0"
0>
0?
#7125000
1!
1E
#7130000
1"
1>
1?
#7140000
0"
0>
0?
#7150000
1"
1>
1?
#7160000
0"
0>
0?
#7170000
0!
1"
0E
1>
1?
#7180000
0"
0>
0?
#7185000
1!
1E
#7190000
1"
1>
1?
#7200000
0"
0>
0?
#7210000
1"
1>
1?
#7220000
0"
0>
0?
#7230000
0!
1"
0E
1>
1?
#7240000
0"
0>
0?
#7250000
1"
1>
1?
#7260000
1!
0"
1E
0>
0?
#7270000
1"
1>
1?
#7280000
0"
0>
0?
#7290000
1"
1>
1?
#7300000
0"
0>
0?
#7310000
1"
1>
1?
#7320000
0!
0"
0E
0>
0?
#7330000
1"
1>
1?
#7340000
0"
0>
0?
#7350000
1!
1"
1E
1>
1?
#7360000
0"
0>
0?
#7370000
1"
1>
1?
