Normal/A_CPU_uPC_uA_reg/simulation/qsim/uA_reg.msim.vcd
$comment
	File created using the following command:
		vcd file uA_reg.msim.vcd -direction
$end
$date
	Thu May 23 15:20:42 2019
$end
$version
	ModelSim Version 10.5b
$end
$timescale
	1ps
$end

$scope module uA_reg_vlg_vec_tst $end
$var reg 6 ! M [5:0] $end
$var reg 1 " RST $end
$var reg 6 # SE [5:0] $end
$var reg 1 $ T3 $end
$var wire 1 % q [5] $end
$var wire 1 & q [4] $end
$var wire 1 ' q [3] $end
$var wire 1 ( q [2] $end
$var wire 1 ) q [1] $end
$var wire 1 * q [0] $end

$scope module i1 $end
$var wire 1 + gnd $end
$var wire 1 , vcc $end
$var wire 1 - unknown $end
$var tri1 1 . devclrn $end
$var tri1 1 / devpor $end
$var tri1 1 0 devoe $end
$var wire 1 1 q[5]~output_o $end
$var wire 1 2 q[4]~output_o $end
$var wire 1 3 q[3]~output_o $end
$var wire 1 4 q[2]~output_o $end
$var wire 1 5 q[1]~output_o $end
$var wire 1 6 q[0]~output_o $end
$var wire 1 7 RST~input_o $end
$var wire 1 8 SE[5]~input_o $end
$var wire 1 9 inst~1_combout $end
$var wire 1 : T3~input_o $end
$var wire 1 ; T3~inputclkctrl_outclk $end
$var wire 1 < M[5]~input_o $end
$var wire 1 = inst~3_combout $end
$var wire 1 > inst~0_combout $end
$var wire 1 ? inst~_emulated_q $end
$var wire 1 @ inst~2_combout $end
$var wire 1 A SE[4]~input_o $end
$var wire 1 B inst4~1_combout $end
$var wire 1 C M[4]~input_o $end
$var wire 1 D inst4~3_combout $end
$var wire 1 E inst4~0_combout $end
$var wire 1 F inst4~_emulated_q $end
$var wire 1 G inst4~2_combout $end
$var wire 1 H SE[3]~input_o $end
$var wire 1 I inst3~1_combout $end
$var wire 1 J M[3]~input_o $end
$var wire 1 K inst3~3_combout $end
$var wire 1 L inst3~0_combout $end
$var wire 1 M inst3~_emulated_q $end
$var wire 1 N inst3~2_combout $end
$var wire 1 O SE[2]~input_o $end
$var wire 1 P inst2~1_combout $end
$var wire 1 Q M[2]~input_o $end
$var wire 1 R inst2~3_combout $end
$var wire 1 S inst2~0_combout $end
$var wire 1 T inst2~_emulated_q $end
$var wire 1 U inst2~2_combout $end
$var wire 1 V SE[1]~input_o $end
$var wire 1 W inst1~1_combout $end
$var wire 1 X M[1]~input_o $end
$var wire 1 Y inst1~3_combout $end
$var wire 1 Z inst1~0_combout $end
$var wire 1 [ inst1~_emulated_q $end
$var wire 1 \ inst1~2_combout $end
$var wire 1 ] SE[0]~input_o $end
$var wire 1 ^ inst7~1_combout $end
$var wire 1 _ M[0]~input_o $end
$var wire 1 ` inst7~3_combout $end
$var wire 1 a inst7~0_combout $end
$var wire 1 b inst7~_emulated_q $end
$var wire 1 c inst7~2_combout $end
$upscope $end
$upscope $end
$enddefinitions $end
#0
$dumpvars
b100110 !
0"
b111111 #
0$
x*
x)
x(
x'
x&
x%
0+
1,
x-
1.
1/
10
x1
x2
x3
x4
x5
x6
07
18
x9
0:
0;
1<
x=
0>
0?
x@
1A
xB
0C
xD
0E
0F
xG
1H
xI
0J
xK
0L
0M
xN
1O
xP
1Q
xR
0S
0T
xU
1V
xW
1X
xY
0Z
0[
x\
1]
x^
0_
x`
0a
0b
xc
$end
#80000
1"
17
1a
0^
1Z
0W
1S
0P
1L
0I
1E
0B
1>
09
0c
0\
0U
0N
0G
0@
01
02
03
04
05
06
0*
0)
0(
0'
0&
0%
0`
1Y
1R
0K
0D
1=
#250000
1$
1:
1;
#500000
b110110 !
b111110 !
b111111 !
0$
1_
1J
1C
0:
0;
1`
1K
1D
#560000
0"
07
0a
0Z
0S
0L
0E
0>
#750000
1$
1:
1;
1b
1[
1T
1M
1F
1?
1c
1\
1U
1N
1G
1@
11
12
13
14
15
16
1*
1)
1(
1'
1&
1%
#1000000
b111101 !
b111100 !
0$
0_
0X
0:
0;
0`
0Y
#1250000
1$
1:
1;
0b
0[
0c
0\
05
06
0*
0)
#1500000
b111000 !
b101000 !
b100000 !
0$
0Q
0J
0C
0:
0;
0R
0K
0D
#1520000
b11111 #
b11101 #
0V
08
1Z
1W
1>
19
1\
15
1)
1Y
0=
0?
#1750000
1$
1:
1;
0T
0M
0F
0U
0N
0G
02
03
04
0(
0'
0&
#2000000
b10101 #
b10001 #
b100100 !
b110100 !
b110001 #
0$
1Q
1C
0O
0H
18
0:
0;
1S
1P
1L
1I
0>
1R
1D
1U
1N
13
14
1(
1'
0R
1K
#2250000
1$
1:
1;
1F
1G
12
1&
#2500000
b10100 !
b11100 !
b110011 #
b11000 !
b10011 #
0$
1V
08
0Q
1J
0<
0:
0;
0Z
1>
1R
0K
1=
#2750000
1$
1:
1;
1[
0\
05
0)
#3000000
b10010 #
b11001 !
b10001 !
b10000 #
b10101 !
0$
1_
1Q
0J
0]
0V
0:
0;
1a
1^
1Z
1`
0R
1K
1c
1\
15
16
1*
1)
0`
0[
#3250000
1$
1:
1;
#3500000
b0 #
b1000 #
b110101 !
b101000 #
b111101 !
b101010 #
b111001 !
0$
0Q
1J
1<
1V
1H
0A
18
0:
0;
0Z
0L
1E
1B
0>
1R
0K
0=
0D
0F
#3750000
1$
1:
1;
1[
0\
05
0)
#4000000
b111010 #
b110010 #
b110000 #
0$
0V
0H
1A
0:
0;
1Z
1L
0E
1\
15
1)
0[
#4250000
1$
1:
1;
#4500000
b101001 !
b101000 !
b1000 !
b110010 #
0$
1V
0_
0C
0<
0:
0;
0Z
1`
1D
1=
#4750000
1$
1:
1;
1[
1F
1?
0\
0G
0@
01
02
05
0)
0&
0%
#5000000
b110110 #
b0 !
b100 !
b10100 !
0$
1Q
0J
1C
1O
0:
0;
0S
0R
1K
0D
#5250000
1$
1:
1;
0F
1G
12
1&
#5500000
b10110 !
b110111 #
b100111 #
b100101 #
0$
1]
0V
0A
1X
0:
0;
0a
1Z
1E
1\
0Y
15
1)
0[
#5750000
1$
1:
1;
1b
0c
06
0*
#6000000
b101 #
b1101 #
b10111 !
b110111 !
b1001 #
b100111 !
b100101 !
b1000 #
b1010 #
0$
1_
0X
0C
1<
0]
1V
0O
1H
08
0:
0;
1a
0Z
1S
0L
1>
0`
1Y
1D
0=
1c
1@
11
16
1*
1%
0b
0?
#6250000
1$
1:
1;
1[
1M
0\
0N
03
05
0)
0'
#6500000
b101101 !
b101001 !
b11010 #
b111010 #
b110010 #
b101000 !
b110110 #
b111000 !
b110111 #
0$
1]
1O
0H
1A
18
0_
0Q
1J
1C
0:
0;
0a
0S
1L
0E
0>
1N
1`
1R
0K
0D
13
1'
0M
#6750000
1$
1:
1;
1b
1T
0c
0U
04
06
0*
0(
#7000000
b110101 #
b110000 !
b110100 !
b110101 !
0$
1_
1Q
0J
0V
0:
0;
1Z
0`
0R
1K
1\
15
1)
0[
#7250000
1$
1:
1;
0b
0T
1c
1U
14
16
1*
1(
#7500000
b10101 !
b110100 #
b11101 !
0$
0]
1J
0<
0:
0;
1a
0K
1=
#7750000
1$
1:
1;
1?
0@
01
0%
#8000000
b11111 !
b100100 #
b100 #
b0 #
b1111 !
b10 #
b1011 !
b101011 !
b100011 !
0$
1V
0O
0A
08
1X
0Q
0J
0C
1<
0:
0;
0Z
1S
1E
1>
1@
0Y
1R
1K
1D
0=
11
1%
0?
#8250000
1$
1:
1;
#8500000
b11 #
b10011 #
b110011 #
b110001 #
0$
1]
0V
1A
18
0:
0;
0a
1Z
0E
0>
#8750000
1$
1:
1;
1F
0G
02
0&
#9000000
b111001 #
b100001 !
b1 !
b1001 !
b111000 #
b101000 #
b1000 #
b1010 #
0$
0X
1J
0<
0]
1V
1H
0A
08
0:
0;
1a
0Z
0L
1E
1>
1Y
0K
1=
1G
12
1&
0F
#9250000
1$
1:
1;
1[
0\
05
0)
#9500000
b1000 !
b10 #
b0 !
b10010 #
0$
0H
1A
0_
0J
0:
0;
1L
0E
1`
1K
#9750000
1$
1:
1;
1F
0G
02
0&
